Consequences of Covid-19 for Candle Critiques
…
To round each date to its months, use: - mutate(month = lubridate::floor_date(Date, "month"))

To compute a mean and confidence interval for a variable on a plot, similar to a box plot, use: - stat_summary(aes(y = noscent), fun.data = mean_cl_normal)

Use the function below to detect no smell-related text in the Review column.

I dont know what I am doing.

Scented_Data$CodeReview <- str_no_scent(Scented_Data$Review)
Scented_Data$CodeReview_1 <- factor(Scented_Data$CodeReview, labels = c("scent", "noscent"))
 
print(Scented_Data)

## # A tibble: 8,614 x 6
##    CandleID Date                Rating Review            CodeReview CodeReview_1
##       <dbl> <dttm>               <dbl> <chr>                  <dbl> <fct>       
##  1        1 2018-04-08 00:00:00      5 "I love candles ~          0 scent       
##  2        1 2018-11-08 00:00:00      1 "Not up to par. ~          1 noscent     
##  3        1 2018-02-01 00:00:00      5 "the Fresh Scent~          0 scent       
##  4        1 2018-12-04 00:00:00      1 "Smelled Bad I p~          0 scent       
##  5        1 2018-01-18 00:00:00      5 "Favorite Yankee~          0 scent       
##  6        1 2018-09-09 00:00:00      5 "Excellent candl~          0 scent       
##  7        1 2017-12-29 00:00:00      1 "Not the same ri~          0 scent       
##  8        1 2018-08-17 00:00:00      5 "Love Balsam & C~          0 scent       
##  9        1 2019-02-25 00:00:00      1 "Its too bad. I ~          0 scent       
## 10        1 2019-01-02 00:00:00      1 "A candle must b~          0 scent       
## # ... with 8,604 more rows
…
